sdram_clk_100m/sdram_100m/sim/transcript
# Reading D:/questasim/xin/tcl/vsim/pref.tcl
# //  Questa Sim-64
# //  Version 10.6c win64 Jul 26 2017
# //
# //  Copyright 1991-2017 Mentor Graphics Corporation
# //  All Rights Reserved.
# //
# //  QuestaSim and its associated documentation contain trade
# //  secrets and commercial or financial information that are the property of
# //  Mentor Graphics Corporation and are privileged, confidential,
# //  and exempt from disclosure under the Freedom of Information Act,
# //  5 U.S.C. Section 552. Furthermore, this information
# //  is prohibited from disclosure under the Trade Secrets Act,
# //  18 U.S.C. Section 1905.
# //
# OpenFile C:/Users/13622/Desktop/my_pro_t/sdram_clk_100m/sdram_100m/sim/sdram_100m.mpf
# Loading project sdram_100m
do run.do
# ** Warning: (vlib-34) Library already exists at "work".
# QuestaSim-64 vlog 10.6c Compiler 2017.07 Jul 26 2017
# Start time: 08:37:00 on Aug 07,2018
# vlog -reportprogress 300 ../src/sdram_aref.v ../src/sdram_init.v ../src/sdram_read.v ../src/sdram_top.v ../src/sdram_write.v ../src/top.v ../src/vga_drive.v 
# -- Compiling module sdram_aref
# -- Compiling module sdram_init
# -- Compiling module sdram_read
# -- Compiling module sdram_top
# -- Compiling module sdram_write
# -- Compiling module top
# -- Compiling module vga_drive
# 
# Top level modules:
# 	sdram_top
# 	top
# End time: 08:37:00 on Aug 07,2018, Elapsed time: 0:00:00
# Errors: 0, Warnings: 0
# QuestaSim-64 vlog 10.6c Compiler 2017.07 Jul 26 2017
# Start time: 08:37:00 on Aug 07,2018
# vlog -reportprogress 300 ./sdram_model_plus.v ./tb_sdram_top.v 
# -- Compiling module sdram_model_plus
# -- Compiling module tb_sdram_top
# 
# Top level modules:
# 	tb_sdram_top
# End time: 08:37:00 on Aug 07,2018, Elapsed time: 0:00:00
# Errors: 0, Warnings: 0
# vsim -voptargs="+acc" work.tb_sdram_top 
# Start time: 08:37:00 on Aug 07,2018
# ** Error: (vsim-7) Failed to open info file "C:/Users/13622/Desktop/sdram_clk_100m/sdram_100m/sim/work/_info" in read mode.
# No such file or directory. (errno = ENOENT)
# ** Note: (vsim-3813) Design is being optimized due to module recompilation...
# ** Error: (vopt-7) Failed to open info file "C:/Users/13622/Desktop/sdram_clk_100m/sdram_100m/sim/work/_info" in read mode.
# No such file or directory. (errno = ENOENT)
# Optimization failed
# ** Error: (vopt-1933) Unable to create temporary directory C:/Users/13622/Desktop/sdram_clk_100m/sdram_100m/sim/work/_tempmsg
# No such file or directory. (errno = ENOENT)
# Error loading design
# Error: Error loading design
#        Pausing macro execution
# MACRO ./run.do PAUSED at line 9
do run.do
# ** Warning: (vlib-34) Library already exists at "work".
# QuestaSim-64 vlog 10.6c Compiler 2017.07 Jul 26 2017
# Start time: 08:37:03 on Aug 07,2018
# vlog -reportprogress 300 ../src/sdram_aref.v ../src/sdram_init.v ../src/sdram_read.v ../src/sdram_top.v ../src/sdram_write.v ../src/top.v ../src/vga_drive.v 
# -- Compiling module sdram_aref
# -- Compiling module sdram_init
# -- Compiling module sdram_read
# -- Compiling module sdram_top
# -- Compiling module sdram_write
# -- Compiling module top
# -- Compiling module vga_drive
# 
# Top level modules:
# 	sdram_top
# 	top
# End time: 08:37:03 on Aug 07,2018, Elapsed time: 0:00:00
# Errors: 0, Warnings: 0
# QuestaSim-64 vlog 10.6c Compiler 2017.07 Jul 26 2017
# Start time: 08:37:04 on Aug 07,2018
# vlog -reportprogress 300 ./sdram_model_plus.v ./tb_sdram_top.v 
# -- Compiling module sdram_model_plus
# -- Compiling module tb_sdram_top
# 
# Top level modules:
# 	tb_sdram_top
# End time: 08:37:04 on Aug 07,2018, Elapsed time: 0:00:00
# Errors: 0, Warnings: 0
# vsim -voptargs="+acc" work.tb_sdram_top 
# Start time: 08:37:00 on Aug 07,2018
# ** Note: (vsim-3812) Design is being optimized...
# ** Warning: ./sdram_model_plus.v(867): (vopt-2697) MSB of part-select into 'Dq_dqm' is out of bounds.
# ** Warning: ./sdram_model_plus.v(867): (vopt-2697) LSB of part-select into 'Dq_dqm' is out of bounds.
# ** Warning: ./sdram_model_plus.v(868): (vopt-2697) MSB of part-select into 'Dq_dqm' is out of bounds.
# ** Warning: ./sdram_model_plus.v(868): (vopt-2697) LSB of part-select into 'Dq_dqm' is out of bounds.
# ** Note: (vopt-143) Recognized 1 FSM in module "sdram_read(fast)".
# ** Note: (vopt-143) Recognized 1 FSM in module "sdram_write(fast)".
# ** Note: (vopt-143) Recognized 1 FSM in module "sdram_top(fast)".
# Loading work.tb_sdram_top(fast)
# Loading work.sdram_top(fast)
# Loading work.sdram_init(fast)
# Loading work.sdram_aref(fast)
# Loading work.sdram_write(fast)
# Loading work.sdram_read(fast)
# Loading work.sdram_model_plus(fast)
# ** Warning: (vsim-3015) ./tb_sdram_top.v(77): [PCDPC] - Port size (4) does not match connection size (2) for port 'Dqm'. The port definition is at: ./sdram_model_plus.v(56).
#    Time: 0 ps  Iteration: 0  Instance: /tb_sdram_top/sdram_model_plus_inst File: ./sdram_model_plus.v
# .main_pane.wave.interior.cs.body.pw.wf
# .main_pane.structure.interior.cs.body.struct
# .main_pane.objects.interior.cs.body.tree
run 100us
run 100us
# at time    100125 ns PRE  : Bank = ALL
# at time    100145 ns AREF : Auto Refresh
# at time    100225 ns AREF : Auto Refresh
# at time    100305 ns LMR  : Load Mode Register
#                             CAS Latency      = 3
#                             Burst Length     = 4
#                             Burst Type       = Sequential
#                             Write Burst Mode = Programmed Burst Length
# at time    115365 ns AREF : Auto Refresh
# at time    130365 ns AREF : Auto Refresh
# at time    145365 ns AREF : Auto Refresh
# at time    160365 ns AREF : Auto Refresh
# at time    175365 ns AREF : Auto Refresh
# at time    190365 ns AREF : Auto Refresh
do run.do
# ** Warning: (vlib-34) Library already exists at "work".
# QuestaSim-64 vlog 10.6c Compiler 2017.07 Jul 26 2017
# Start time: 08:38:02 on Aug 07,2018
# vlog -reportprogress 300 ../src/sdram_aref.v ../src/sdram_init.v ../src/sdram_read.v ../src/sdram_top.v ../src/sdram_write.v ../src/top.v ../src/vga_drive.v 
# -- Compiling module sdram_aref
# -- Compiling module sdram_init
# -- Compiling module sdram_read
# -- Compiling module sdram_top
# -- Compiling module sdram_write
# -- Compiling module top
# -- Compiling module vga_drive
# 
# Top level modules:
# 	sdram_top
# 	top
# End time: 08:38:03 on Aug 07,2018, Elapsed time: 0:00:01
# Errors: 0, Warnings: 0
# QuestaSim-64 vlog 10.6c Compiler 2017.07 Jul 26 2017
# Start time: 08:38:03 on Aug 07,2018
# vlog -reportprogress 300 ./sdram_model_plus.v ./tb_sdram_top.v 
# -- Compiling module sdram_model_plus
# -- Compiling module tb_sdram_top
# 
# Top level modules:
# 	tb_sdram_top
# End time: 08:38:03 on Aug 07,2018, Elapsed time: 0:00:00
# Errors: 0, Warnings: 0
# End time: 08:38:04 on Aug 07,2018, Elapsed time: 0:01:04
# Errors: 1, Warnings: 5
# vsim -voptargs="+acc" work.tb_sdram_top 
# Start time: 08:38:04 on Aug 07,2018
# ** Note: (vsim-3813) Design is being optimized due to module recompilation...
# Loading work.tb_sdram_top(fast)
# Loading work.sdram_top(fast)
# Loading work.sdram_init(fast)
# Loading work.sdram_aref(fast)
# Loading work.sdram_write(fast)
# Loading work.sdram_read(fast)
# Loading work.sdram_model_plus(fast)
# ** Warning: (vsim-3015) ./tb_sdram_top.v(77): [PCDPC] - Port size (4) does not match connection size (2) for port 'Dqm'. The port definition is at: ./sdram_model_plus.v(56).
#    Time: 0 ps  Iteration: 0  Instance: /tb_sdram_top/sdram_model_plus_inst File: ./sdram_model_plus.v
# .main_pane.wave.interior.cs.body.pw.wf
# .main_pane.structure.interior.cs.body.struct
# .main_pane.objects.interior.cs.body.tree
run 205us
# at time    200125 ns PRE  : Bank = ALL
# at time    200145 ns AREF : Auto Refresh
# at time    200225 ns AREF : Auto Refresh
# at time    200305 ns LMR  : Load Mode Register
#                             CAS Latency      = 3
#                             Burst Length     = 4
#                             Burst Type       = Sequential
#                             Write Burst Mode = Programmed Burst Length
run 5us
run 5us
# at time    210135 ns ACT  : Bank = 0 Row =    0
# at time    210212 ns READ : Bank = 0 Row =    0, Col =   0, Data =     0, Dqm = zz00
# at time    210222 ns READ : Bank = 0 Row =    0, Col =   1, Data =     0, Dqm = zz00
# at time    210232 ns READ : Bank = 0 Row =    0, Col =   2, Data =     0, Dqm = zz00
# at time    210242 ns READ : Bank = 0 Row =    0, Col =   3, Data =     0, Dqm = zz00
# at time    210252 ns READ : Bank = 0 Row =    0, Col =   4, Data =     0, Dqm = zz00
# at time    210262 ns READ : Bank = 0 Row =    0, Col =   5, Data =     0, Dqm = zz00
# at time    210272 ns READ : Bank = 0 Row =    0, Col =   6, Data =     0, Dqm = zz00
# at time    210282 ns READ : Bank = 0 Row =    0, Col =   7, Data =     0, Dqm = zz00
# at time    210292 ns READ : Bank = 0 Row =    0, Col =   8, Data =     0, Dqm = zz00
# at time    210302 ns READ : Bank = 0 Row =    0, Col =   9, Data =     0, Dqm = zz00
# at time    210312 ns READ : Bank = 0 Row =    0, Col =  10, Data =     0, Dqm = zz00
# at time    210322 ns READ : Bank = 0 Row =    0, Col =  11, Data =     0, Dqm = zz00
# at time    210332 ns READ : Bank = 0 Row =    0, Col =  12, Data =     0, Dqm = zz00
# at time    210342 ns READ : Bank = 0 Row =    0, Col =  13, Data =     0, Dqm = zz00
# at time    210352 ns READ : Bank = 0 Row =    0, Col =  14, Data =     0, Dqm = zz00
# at time    210362 ns READ : Bank = 0 Row =    0, Col =  15, Data =     0, Dqm = zz00
# at time    210372 ns READ : Bank = 0 Row =    0, Col =  16, Data =     0, Dqm = zz00
# at time    210382 ns READ : Bank = 0 Row =    0, Col =  17, Data =     0, Dqm = zz00
# at time    210392 ns READ : Bank = 0 Row =    0, Col =  18, Data =     0, Dqm = zz00
# at time    210402 ns READ : Bank = 0 Row =    0, Col =  19, Data =     0, Dqm = zz00
# at time    210412 ns READ : Bank = 0 Row =    0, Col =  20, Data =     0, Dqm = zz00
# at time    210422 ns READ : Bank = 0 Row =    0, Col =  21, Data =     0, Dqm = zz00
# at time    210432 ns READ : Bank = 0 Row =    0, Col =  22, Data =     0, Dqm = zz00
# at time    210442 ns READ : Bank = 0 Row =    0, Col =  23, Data =     0, Dqm = zz00
# at time    210452 ns READ : Bank = 0 Row =    0, Col =  24, Data =     0, Dqm = zz00
# at time    210462 ns READ : Bank = 0 Row =    0, Col =  25, Data =     0, Dqm = zz00
# at time    210472 ns READ : Bank = 0 Row =    0, Col =  26, Data =     0, Dqm = zz00
# at time    210482 ns READ : Bank = 0 Row =    0, Col =  27, Data =     0, Dqm = zz00
# at time    210492 ns READ : Bank = 0 Row =    0, Col =  28, Data =     0, Dqm = zz00
# at time    210502 ns READ : Bank = 0 Row =    0, Col =  29, Data =     0, Dqm = zz00
# at time    210512 ns READ : Bank = 0 Row =    0, Col =  30, Data =     0, Dqm = zz00
# at time    210522 ns READ : Bank = 0 Row =    0, Col =  31, Data =     0, Dqm = zz00
# at time    210532 ns READ : Bank = 0 Row =    0, Col =  32, Data =     0, Dqm = zz00
# at time    210542 ns READ : Bank = 0 Row =    0, Col =  33, Data =     0, Dqm = zz00
# at time    210552 ns READ : Bank = 0 Row =    0, Col =  34, Data =     0, Dqm = zz00
# at time    210562 ns READ : Bank = 0 Row =    0, Col =  35, Data =     0, Dqm = zz00
# at time    210572 ns READ : Bank = 0 Row =    0, Col =  36, Data =     0, Dqm = zz00
# at time    210582 ns READ : Bank = 0 Row =    0, Col =  37, Data =     0, Dqm = zz00
# at time    210592 ns READ : Bank = 0 Row =    0, Col =  38, Data =     0, Dqm = zz00
# at time    210602 ns READ : Bank = 0 Row =    0, Col =  39, Data =     0, Dqm = zz00
# at time    210612 ns READ : Bank = 0 Row =    0, Col =  40, Data =     0, Dqm = zz00
# at time    210622 ns READ : Bank = 0 Row =    0, Col =  41, Data =     0, Dqm = zz00
# at time    210632 ns READ : Bank = 0 Row =    0, Col =  42, Data =     0, Dqm = zz00
# at time    210642 ns READ : Bank = 0 Row =    0, Col =  43, Data =     0, Dqm = zz00
# at time    210652 ns READ : Bank = 0 Row =    0, Col =  44, Data =     0, Dqm = zz00
# at time    210662 ns READ : Bank = 0 Row =    0, Col =  45, Data =     0, Dqm = zz00
# at time    210672 ns READ : Bank = 0 Row =    0, Col =  46, Data =     0, Dqm = zz00
# at time    210682 ns READ : Bank = 0 Row =    0, Col =  47, Data =     0, Dqm = zz00
# at time    210692 ns READ : Bank = 0 Row =    0, Col =  48, Data =     0, Dqm = zz00
# at time    210702 ns READ : Bank = 0 Row =    0, Col =  49, Data =     0, Dqm = zz00
# at time    210712 ns READ : Bank = 0 Row =    0, Col =  50, Data =     0, Dqm = zz00
# at time    210722 ns READ : Bank = 0 Row =    0, Col =  51, Data =     0, Dqm = zz00
# at time    210732 ns READ : Bank = 0 Row =    0, Col =  52, Data =     0, Dqm = zz00
# at time    210742 ns READ : Bank = 0 Row =    0, Col =  53, Data =     0, Dqm = zz00
# at time    210752 ns READ : Bank = 0 Row =    0, Col =  54, Data =     0, Dqm = zz00
# at time    210762 ns READ : Bank = 0 Row =    0, Col =  55, Data =     0, Dqm = zz00
# at time    210772 ns READ : Bank = 0 Row =    0, Col =  56, Data =     0, Dqm = zz00
# at time    210782 ns READ : Bank = 0 Row =    0, Col =  57, Data =     0, Dqm = zz00
# at time    210792 ns READ : Bank = 0 Row =    0, Col =  58, Data =     0, Dqm = zz00
# at time    210802 ns READ : Bank = 0 Row =    0, Col =  59, Data =     0, Dqm = zz00
# at time    210812 ns READ : Bank = 0 Row =    0, Col =  60, Data =     0, Dqm = zz00
# at time    210822 ns READ : Bank = 0 Row =    0, Col =  61, Data =     0, Dqm = zz00
# at time    210832 ns READ : Bank = 0 Row =    0, Col =  62, Data =     0, Dqm = zz00
# at time    210842 ns READ : Bank = 0 Row =    0, Col =  63, Data =     0, Dqm = zz00
# at time    210852 ns READ : Bank = 0 Row =    0, Col =  64, Data =     0, Dqm = zz00
# at time    210862 ns READ : Bank = 0 Row =    0, Col =  65, Data =     0, Dqm = zz00
# at time    210872 ns READ : Bank = 0 Row =    0, Col =  66, Data =     0, Dqm = zz00
# at time    210882 ns READ : Bank = 0 Row =    0, Col =  67, Data =     0, Dqm = zz00
# at time    210892 ns READ : Bank = 0 Row =    0, Col =  68, Data =     0, Dqm = zz00
# at time    210902 ns READ : Bank = 0 Row =    0, Col =  69, Data =     0, Dqm = zz00
# at time    210912 ns READ : Bank = 0 Row =    0, Col =  70, Data =     0, Dqm = zz00
# at time    210922 ns READ : Bank = 0 Row =    0, Col =  71, Data =     0, Dqm = zz00
# at time    210932 ns READ : Bank = 0 Row =    0, Col =  72, Data =     0, Dqm = zz00
# at time    210942 ns READ : Bank = 0 Row =    0, Col =  73, Data =     0, Dqm = zz00
# at time    210952 ns READ : Bank = 0 Row =    0, Col =  74, Data =     0, Dqm = zz00
# at time    210962 ns READ : Bank = 0 Row =    0, Col =  75, Data =     0, Dqm = zz00
# at time    210972 ns READ : Bank = 0 Row =    0, Col =  76, Data =     0, Dqm = zz00
# at time    210982 ns READ : Bank = 0 Row =    0, Col =  77, Data =     0, Dqm = zz00
# at time    210992 ns READ : Bank = 0 Row =    0, Col =  78, Data =     0, Dqm = zz00
# at time    211002 ns READ : Bank = 0 Row =    0, Col =  79, Data =     0, Dqm = zz00
# at time    211012 ns READ : Bank = 0 Row =    0, Col =  80, Data =     0, Dqm = zz00
# at time    211022 ns READ : Bank = 0 Row =    0, Col =  81, Data =     0, Dqm = zz00
# at time    211032 ns READ : Bank = 0 Row =    0, Col =  82, Data =     0, Dqm = zz00
# at time    211042 ns READ : Bank = 0 Row =    0, Col =  83, Data =     0, Dqm = zz00
# at time    211052 ns READ : Bank = 0 Row =    0, Col =  84, Data =     0, Dqm = zz00
# at time    211062 ns READ : Bank = 0 Row =    0, Col =  85, Data =     0, Dqm = zz00
# at time    211072 ns READ : Bank = 0 Row =    0, Col =  86, Data =     0, Dqm = zz00
# at time    211082 ns READ : Bank = 0 Row =    0, Col =  87, Data =     0, Dqm = zz00
# at time    211092 ns READ : Bank = 0 Row =    0, Col =  88, Data =     0, Dqm = zz00
# at time    211102 ns READ : Bank = 0 Row =    0, Col =  89, Data =     0, Dqm = zz00
# at time    211112 ns READ : Bank = 0 Row =    0, Col =  90, Data =     0, Dqm = zz00
# at time    211122 ns READ : Bank = 0 Row =    0, Col =  91, Data =     0, Dqm = zz00
# at time    211132 ns READ : Bank = 0 Row =    0, Col =  92, Data =     0, Dqm = zz00
# at time    211142 ns READ : Bank = 0 Row =    0, Col =  93, Data =     0, Dqm = zz00
# at time    211152 ns READ : Bank = 0 Row =    0, Col =  94, Data =     0, Dqm = zz00
# at time    211162 ns READ : Bank = 0 Row =    0, Col =  95, Data =     0, Dqm = zz00
# at time    211172 ns READ : Bank = 0 Row =    0, Col =  96, Data =     0, Dqm = zz00
# at time    211182 ns READ : Bank = 0 Row =    0, Col =  97, Data =     0, Dqm = zz00
# at time    211192 ns READ : Bank = 0 Row =    0, Col =  98, Data =     0, Dqm = zz00
# at time    211202 ns READ : Bank = 0 Row =    0, Col =  99, Data =     0, Dqm = zz00
# at time    211212 ns READ : Bank = 0 Row =    0, Col = 100, Data =     0, Dqm = zz00
# at time    211222 ns READ : Bank = 0 Row =    0, Col = 101, Data =     0, Dqm = zz00
# at time    211232 ns READ : Bank = 0 Row =    0, Col = 102, Data =     0, Dqm = zz00
# at time    211242 ns READ : Bank = 0 Row =    0, Col = 103, Data =     0, Dqm = zz00
# at time    211252 ns READ : Bank = 0 Row =    0, Col = 104, Data =     0, Dqm = zz00
# at time    211262 ns READ : Bank = 0 Row =    0, Col = 105, Data =     0, Dqm = zz00
# at time    211272 ns READ : Bank = 0 Row =    0, Col = 106, Data =     0, Dqm = zz00
# at time    211282 ns READ : Bank = 0 Row =    0, Col = 107, Data =     0, Dqm = zz00
# at time    211292 ns READ : Bank = 0 Row =    0, Col = 108, Data =     0, Dqm = zz00
# at time    211302 ns READ : Bank = 0 Row =    0, Col = 109, Data =     0, Dqm = zz00
# at time    211312 ns READ : Bank = 0 Row =    0, Col = 110, Data =     0, Dqm = zz00
# at time    211322 ns READ : Bank = 0 Row =    0, Col = 111, Data =     0, Dqm = zz00
# at time    211332 ns READ : Bank = 0 Row =    0, Col = 112, Data =     0, Dqm = zz00
# at time    211342 ns READ : Bank = 0 Row =    0, Col = 113, Data =     0, Dqm = zz00
# at time    211352 ns READ : Bank = 0 Row =    0, Col = 114, Data =     0, Dqm = zz00
# at time    211362 ns READ : Bank = 0 Row =    0, Col = 115, Data =     0, Dqm = zz00
# at time    211372 ns READ : Bank = 0 Row =    0, Col = 116, Data =     0, Dqm = zz00
# at time    211382 ns READ : Bank = 0 Row =    0, Col = 117, Data =     0, Dqm = zz00
# at time    211392 ns READ : Bank = 0 Row =    0, Col = 118, Data =     0, Dqm = zz00
# at time    211402 ns READ : Bank = 0 Row =    0, Col = 119, Data =     0, Dqm = zz00
# at time    211412 ns READ : Bank = 0 Row =    0, Col = 120, Data =     0, Dqm = zz00
# at time    211422 ns READ : Bank = 0 Row =    0, Col = 121, Data =     0, Dqm = zz00
# at time    211432 ns READ : Bank = 0 Row =    0, Col = 122, Data =     0, Dqm = zz00
# at time    211442 ns READ : Bank = 0 Row =    0, Col = 123, Data =     0, Dqm = zz00
# at time    211452 ns READ : Bank = 0 Row =    0, Col = 124, Data =     0, Dqm = zz00
# at time    211462 ns READ : Bank = 0 Row =    0, Col = 125, Data =     0, Dqm = zz00
# at time    211472 ns READ : Bank = 0 Row =    0, Col = 126, Data =     0, Dqm = zz00
# at time    211482 ns READ : Bank = 0 Row =    0, Col = 127, Data =     0, Dqm = zz00
# at time    211492 ns READ : Bank = 0 Row =    0, Col = 128, Data =     0, Dqm = zz00
# at time    211502 ns READ : Bank = 0 Row =    0, Col = 129, Data =     0, Dqm = zz00
# at time    211512 ns READ : Bank = 0 Row =    0, Col = 130, Data =     0, Dqm = zz00
# at time    211522 ns READ : Bank = 0 Row =    0, Col = 131, Data =     0, Dqm = zz00
# at time    211532 ns READ : Bank = 0 Row =    0, Col = 132, Data =     0, Dqm = zz00
# at time    211542 ns READ : Bank = 0 Row =    0, Col = 133, Data =     0, Dqm = zz00
# at time    211552 ns READ : Bank = 0 Row =    0, Col = 134, Data =     0, Dqm = zz00
# at time    211562 ns READ : Bank = 0 Row =    0, Col = 135, Data =     0, Dqm = zz00
# at time    211572 ns READ : Bank = 0 Row =    0, Col = 136, Data =     0, Dqm = zz00
# at time    211582 ns READ : Bank = 0 Row =    0, Col = 137, Data =     0, Dqm = zz00
# at time    211592 ns READ : Bank = 0 Row =    0, Col = 138, Data =     0, Dqm = zz00
# at time    211602 ns READ : Bank = 0 Row =    0, Col = 139, Data =     0, Dqm = zz00
# at time    211612 ns READ : Bank = 0 Row =    0, Col = 140, Data =     0, Dqm = zz00
# at time    211622 ns READ : Bank = 0 Row =    0, Col = 141, Data =     0, Dqm = zz00
# at time    211632 ns READ : Bank = 0 Row =    0, Col = 142, Data =     0, Dqm = zz00
# at time    211642 ns READ : Bank = 0 Row =    0, Col = 143, Data =     0, Dqm = zz00
# at time    211652 ns READ : Bank = 0 Row =    0, Col = 144, Data =     0, Dqm = zz00
# at time    211662 ns READ : Bank = 0 Row =    0, Col = 145, Data =     0, Dqm = zz00
# at time    211672 ns READ : Bank = 0 Row =    0, Col = 146, Data =     0, Dqm = zz00
# at time    211682 ns READ : Bank = 0 Row =    0, Col = 147, Data =     0, Dqm = zz00
# at time    211692 ns READ : Bank = 0 Row =    0, Col = 148, Data =     0, Dqm = zz00
# at time    211702 ns READ : Bank = 0 Row =    0, Col = 149, Data =     0, Dqm = zz00
# at time    211712 ns READ : Bank = 0 Row =    0, Col = 150, Data =     0, Dqm = zz00
# at time    211722 ns READ : Bank = 0 Row =    0, Col = 151, Data =     0, Dqm = zz00
# at time    211732 ns READ : Bank = 0 Row =    0, Col = 152, Data =     0, Dqm = zz00
# at time    211742 ns READ : Bank = 0 Row =    0, Col = 153, Data =     0, Dqm = zz00
# at time    211752 ns READ : Bank = 0 Row =    0, Col = 154, Data =     0, Dqm = zz00
# at time    211762 ns READ : Bank = 0 Row =    0, Col = 155, Data =     0, Dqm = zz00
# at time    211772 ns READ : Bank = 0 Row =    0, Col = 156, Data =     0, Dqm = zz00
# at time    211782 ns READ : Bank = 0 Row =    0, Col = 157, Data =     0, Dqm = zz00
# at time    211792 ns READ : Bank = 0 Row =    0, Col = 158, Data =     0, Dqm = zz00
# at time    211802 ns READ : Bank = 0 Row =    0, Col = 159, Data =     0, Dqm = zz00
# at time    211812 ns READ : Bank = 0 Row =    0, Col = 160, Data =     0, Dqm = zz00
# at time    211822 ns READ : Bank = 0 Row =    0, Col = 161, Data =     0, Dqm = zz00
# at time    211832 ns READ : Bank = 0 Row =    0, Col = 162, Data =     0, Dqm = zz00
# at time    211842 ns READ : Bank = 0 Row =    0, Col = 163, Data =     0, Dqm = zz00
# at time    211852 ns READ : Bank = 0 Row =    0, Col = 164, Data =     0, Dqm = zz00
# at time    211862 ns READ : Bank = 0 Row =    0, Col = 165, Data =     0, Dqm = zz00
# at time    211872 ns READ : Bank = 0 Row =    0, Col = 166, Data =     0, Dqm = zz00
# at time    211882 ns READ : Bank = 0 Row =    0, Col = 167, Data =     0, Dqm = zz00
# at time    211892 ns READ : Bank = 0 Row =    0, Col = 168, Data =     0, Dqm = zz00
# at time    211902 ns READ : Bank = 0 Row =    0, Col = 169, Data =     0, Dqm = zz00
# at time    211912 ns READ : Bank = 0 Row =    0, Col = 170, Data =     0, Dqm = zz00
# at time    211922 ns READ : Bank = 0 Row =    0, Col = 171, Data =     0, Dqm = zz00
# at time    211932 ns READ : Bank = 0 Row =    0, Col = 172, Data =     0, Dqm = zz00
# at time    211942 ns READ : Bank = 0 Row =    0, Col = 173, Data =     0, Dqm = zz00
# at time    211952 ns READ : Bank = 0 Row =    0, Col = 174, Data =     0, Dqm = zz00
# at time    211962 ns READ : Bank = 0 Row =    0, Col = 175, Data =     0, Dqm = zz00
# at time    211972 ns READ : Bank = 0 Row =    0, Col = 176, Data =     0, Dqm = zz00
# at time    211982 ns READ : Bank = 0 Row =    0, Col = 177, Data =     0, Dqm = zz00
# at time    211992 ns READ : Bank = 0 Row =    0, Col = 178, Data =     0, Dqm = zz00
# at time    212002 ns READ : Bank = 0 Row =    0, Col = 179, Data =     0, Dqm = zz00
# at time    212012 ns READ : Bank = 0 Row =    0, Col = 180, Data =     0, Dqm = zz00
# at time    212022 ns READ : Bank = 0 Row =    0, Col = 181, Data =     0, Dqm = zz00
# at time    212032 ns READ : Bank = 0 Row =    0, Col = 182, Data =     0, Dqm = zz00
# at time    212042 ns READ : Bank = 0 Row =    0, Col = 183, Data =     0, Dqm = zz00
# at time    212052 ns READ : Bank = 0 Row =    0, Col = 184, Data =     0, Dqm = zz00
# at time    212062 ns READ : Bank = 0 Row =    0, Col = 185, Data =     0, Dqm = zz00
# at time    212072 ns READ : Bank = 0 Row =    0, Col = 186, Data =     0, Dqm = zz00
# at time    212082 ns READ : Bank = 0 Row =    0, Col = 187, Data =     0, Dqm = zz00
# at time    212092 ns READ : Bank = 0 Row =    0, Col = 188, Data =     0, Dqm = zz00
# at time    212102 ns READ : Bank = 0 Row =    0, Col = 189, Data =     0, Dqm = zz00
# at time    212112 ns READ : Bank = 0 Row =    0, Col = 190, Data =     0, Dqm = zz00
# at time    212122 ns READ : Bank = 0 Row =    0, Col = 191, Data =     0, Dqm = zz00
# at time    212132 ns READ : Bank = 0 Row =    0, Col = 192, Data =     0, Dqm = zz00
# at time    212142 ns READ : Bank = 0 Row =    0, Col = 193, Data =     0, Dqm = zz00
# at time    212152 ns READ : Bank = 0 Row =    0, Col = 194, Data =     0, Dqm = zz00
# at time    212162 ns READ : Bank = 0 Row =    0, Col = 195, Data =     0, Dqm = zz00
# at time    212172 ns READ : Bank = 0 Row =    0, Col = 196, Data =     0, Dqm = zz00
# at time    212182 ns READ : Bank = 0 Row =    0, Col = 197, Data =     0, Dqm = zz00
# at time    212192 ns READ : Bank = 0 Row =    0, Col = 198, Data =     0, Dqm = zz00
# at time    212202 ns READ : Bank = 0 Row =    0, Col = 199, Data =     0, Dqm = zz00
# at time    212212 ns READ : Bank = 0 Row =    0, Col = 200, Data =     0, Dqm = zz00
# at time    212222 ns READ : Bank = 0 Row =    0, Col = 201, Data =     0, Dqm = zz00
# at time    212232 ns READ : Bank = 0 Row =    0, Col = 202, Data =     0, Dqm = zz00
# at time    212242 ns READ : Bank = 0 Row =    0, Col = 203, Data =     0, Dqm = zz00
# at time    212252 ns READ : Bank = 0 Row =    0, Col = 204, Data =     0, Dqm = zz00
# at time    212262 ns READ : Bank = 0 Row =    0, Col = 205, Data =     0, Dqm = zz00
# at time    212272 ns READ : Bank = 0 Row =    0, Col = 206, Data =     0, Dqm = zz00
# at time    212282 ns READ : Bank = 0 Row =    0, Col = 207, Data =     0, Dqm = zz00
# at time    212292 ns READ : Bank = 0 Row =    0, Col = 208, Data =     0, Dqm = zz00
# at time    212302 ns READ : Bank = 0 Row =    0, Col = 209, Data =     0, Dqm = zz00
# at time    212312 ns READ : Bank = 0 Row =    0, Col = 210, Data =     0, Dqm = zz00
# at time    212322 ns READ : Bank = 0 Row =    0, Col = 211, Data =     0, Dqm = zz00
# at time    212332 ns READ : Bank = 0 Row =    0, Col = 212, Data =     0, Dqm = zz00
# at time    212342 ns READ : Bank = 0 Row =    0, Col = 213, Data =     0, Dqm = zz00
# at time    212352 ns READ : Bank = 0 Row =    0, Col = 214, Data =     0, Dqm = zz00
# at time    212362 ns READ : Bank = 0 Row =    0, Col = 215, Data =     0, Dqm = zz00
# at time    212372 ns READ : Bank = 0 Row =    0, Col = 216, Data =     0, Dqm = zz00
# at time    212382 ns READ : Bank = 0 Row =    0, Col = 217, Data =     0, Dqm = zz00
# at time    212392 ns READ : Bank = 0 Row =    0, Col = 218, Data =     0, Dqm = zz00
# at time    212402 ns READ : Bank = 0 Row =    0, Col = 219, Data =     0, Dqm = zz00
# at time    212412 ns READ : Bank = 0 Row =    0, Col = 220, Data =     0, Dqm = zz00
# at time    212422 ns READ : Bank = 0 Row =    0, Col = 221, Data =     0, Dqm = zz00
# at time    212432 ns READ : Bank = 0 Row =    0, Col = 222, Data =     0, Dqm = zz00
# at time    212442 ns READ : Bank = 0 Row =    0, Col = 223, Data =     0, Dqm = zz00
# at time    212452 ns READ : Bank = 0 Row =    0, Col = 224, Data =     0, Dqm = zz00
# at time    212462 ns READ : Bank = 0 Row =    0, Col = 225, Data =     0, Dqm = zz00
# at time    212472 ns READ : Bank = 0 Row =    0, Col = 226, Data =     0, Dqm = zz00
# at time    212482 ns READ : Bank = 0 Row =    0, Col = 227, Data =     0, Dqm = zz00
# at time    212492 ns READ : Bank = 0 Row =    0, Col = 228, Data =     0, Dqm = zz00
# at time    212502 ns READ : Bank = 0 Row =    0, Col = 229, Data =     0, Dqm = zz00
# at time    212512 ns READ : Bank = 0 Row =    0, Col = 230, Data =     0, Dqm = zz00
# at time    212522 ns READ : Bank = 0 Row =    0, Col = 231, Data =     0, Dqm = zz00
# at time    212532 ns READ : Bank = 0 Row =    0, Col = 232, Data =     0, Dqm = zz00
# at time    212542 ns READ : Bank = 0 Row =    0, Col = 233, Data =     0, Dqm = zz00
# at time    212552 ns READ : Bank = 0 Row =    0, Col = 234, Data =     0, Dqm = zz00
# at time    212562 ns READ : Bank = 0 Row =    0, Col = 235, Data =     0, Dqm = zz00
# at time    212572 ns READ : Bank = 0 Row =    0, Col = 236, Data =     0, Dqm = zz00
