sdram_read/pro/sdram_read/transcript
# Reading D:/modelsim/xin/tcl/vsim/pref.tcl
# //  ModelSim SE-64 10.4 Dec  3 2014 
# //
# //  Copyright 1991-2014 Mentor Graphics Corporation
# //  All Rights Reserved.
# //
# //  THIS WORK CONTAINS TRADE SECRET AND PROPRIETARY INFORMATION
# //  WHICH IS THE PROPERTY OF MENTOR GRAPHICS CORPORATION OR ITS
# //  LICENSORS AND IS SUBJECT TO LICENSE TERMS.
# //  THIS DOCUMENT CONTAINS TRADE SECRETS AND COMMERCIAL OR FINANCIAL
# //  INFORMATION THAT ARE PRIVILEGED, CONFIDENTIAL, AND EXEMPT FROM
# //  DISCLOSURE UNDER THE FREEDOM OF INFORMATION ACT, 5 U.S.C. SECTION 552.
# //  FURTHERMORE, THIS INFORMATION IS PROHIBITED FROM DISCLOSURE UNDER
# //  THE TRADE SECRETS ACT, 18 U.S.C. SECTION 1905.
# //
# do {tb_sdram_top.fdo}
# ** Warning: (vlib-34) Library already exists at "work".
# 
# Model Technology ModelSim SE-64 vlog 10.4 Compiler 2014.12 Dec  3 2014
# Start time: 15:53:05 on Aug 07,2018
# vlog -reportprogress 300 ../../src/sdram_write.v 
# -- Compiling module sdram_write
# 
# Top level modules:
# 	sdram_write
# End time: 15:53:05 on Aug 07,2018, Elapsed time: 0:00:00
# Errors: 0, Warnings: 0
# Model Technology ModelSim SE-64 vlog 10.4 Compiler 2014.12 Dec  3 2014
# Start time: 15:53:05 on Aug 07,2018
# vlog -reportprogress 300 ../../src/sdram_read.v 
# -- Compiling module sdram_read
# 
# Top level modules:
# 	sdram_read
# End time: 15:53:05 on Aug 07,2018, Elapsed time: 0:00:00
# Errors: 0, Warnings: 0
# Model Technology ModelSim SE-64 vlog 10.4 Compiler 2014.12 Dec  3 2014
# Start time: 15:53:05 on Aug 07,2018
# vlog -reportprogress 300 ../../src/sdram_init.v 
# -- Compiling module sdram_init
# 
# Top level modules:
# 	sdram_init
# End time: 15:53:05 on Aug 07,2018, Elapsed time: 0:00:00
# Errors: 0, Warnings: 0
# Model Technology ModelSim SE-64 vlog 10.4 Compiler 2014.12 Dec  3 2014
# Start time: 15:53:05 on Aug 07,2018
# vlog -reportprogress 300 ../../src/sdram_aref.v 
# -- Compiling module sdram_aref
# 
# Top level modules:
# 	sdram_aref
# End time: 15:53:05 on Aug 07,2018, Elapsed time: 0:00:00
# Errors: 0, Warnings: 0
# Model Technology ModelSim SE-64 vlog 10.4 Compiler 2014.12 Dec  3 2014
# Start time: 15:53:05 on Aug 07,2018
# vlog -reportprogress 300 ../../src/auto_write_read.v 
# -- Compiling module auto_write_read
# 
# Top level modules:
# 	auto_write_read
# End time: 15:53:06 on Aug 07,2018, Elapsed time: 0:00:01
# Errors: 0, Warnings: 0
# Model Technology ModelSim SE-64 vlog 10.4 Compiler 2014.12 Dec  3 2014
# Start time: 15:53:06 on Aug 07,2018
# vlog -reportprogress 300 ../../work/sdram_model_plus.v 
# -- Compiling module sdram_model_plus
# 
# Top level modules:
# 	sdram_model_plus
# End time: 15:53:06 on Aug 07,2018, Elapsed time: 0:00:00
# Errors: 0, Warnings: 0
# Model Technology ModelSim SE-64 vlog 10.4 Compiler 2014.12 Dec  3 2014
# Start time: 15:53:06 on Aug 07,2018
# vlog -reportprogress 300 ../../src/sdram_top.v 
# -- Compiling module sdram_top
# 
# Top level modules:
# 	sdram_top
# End time: 15:53:06 on Aug 07,2018, Elapsed time: 0:00:00
# Errors: 0, Warnings: 0
# Model Technology ModelSim SE-64 vlog 10.4 Compiler 2014.12 Dec  3 2014
# Start time: 15:53:06 on Aug 07,2018
# vlog -reportprogress 300 ../../work/tb_sdram_top.v 
# -- Compiling module tb_sdram_top
# 
# Top level modules:
# 	tb_sdram_top
# End time: 15:53:06 on Aug 07,2018, Elapsed time: 0:00:00
# Errors: 0, Warnings: 0
# Model Technology ModelSim SE-64 vlog 10.4 Compiler 2014.12 Dec  3 2014
# Start time: 15:53:06 on Aug 07,2018
# vlog -reportprogress 300 D:/ise/xin/14.7/ISE_DS/ISE/verilog/src/glbl.v 
# -- Compiling module glbl
# 
# Top level modules:
# 	glbl
# End time: 15:53:06 on Aug 07,2018, Elapsed time: 0:00:00
# Errors: 0, Warnings: 0
# vsim -gui -do "do {tb_sdram_top.fdo}" 
# Start time: 15:53:06 on Aug 07,2018
# ** Note: (vsim-3812) Design is being optimized...
# 
# ** Warning: ../../work/sdram_model_plus.v(867): (vopt-2697) MSB of part-select into 'Dq_dqm' is out of bounds.
# 
# ** Warning: ../../work/sdram_model_plus.v(867): (vopt-2697) LSB of part-select into 'Dq_dqm' is out of bounds.
# 
# ** Warning: ../../work/sdram_model_plus.v(868): (vopt-2697) MSB of part-select into 'Dq_dqm' is out of bounds.
# 
# ** Warning: ../../work/sdram_model_plus.v(868): (vopt-2697) LSB of part-select into 'Dq_dqm' is out of bounds.
# 
# ** Note: (vopt-143) Recognized 1 FSM in module "sdram_read(fast)".
# 
# ** Note: (vopt-143) Recognized 1 FSM in module "sdram_write(fast)".
# 
# ** Note: (vopt-143) Recognized 1 FSM in module "sdram_top(fast)".
# 
# Loading work.tb_sdram_top(fast)
# Loading work.sdram_top(fast)
# Loading work.sdram_init(fast)
# Loading work.sdram_aref(fast)
# Loading work.sdram_write(fast)
# Loading work.sdram_read(fast)
# Loading work.auto_write_read(fast)
# Loading work.wfifo_512x16(fast)
# Loading xilinxcorelib_ver.FIFO_GENERATOR_V9_3(fast)
# Loading xilinxcorelib_ver.FIFO_GENERATOR_V9_3_CONV_VER(fast)
# Loading xilinxcorelib_ver.fifo_generator_v9_3_bhv_ver_as(fast)
# Loading xilinxcorelib_ver.fifo_generator_v9_3_sync_stage(fast)
# Loading work.sdram_model_plus(fast)
# Loading work.glbl(fast)
# ** Warning: (vsim-3015) ../../work/tb_sdram_top.v(137): [PCDPC] - Port size (4) does not match connection size (2) for port 'Dqm'. The port definition is at: ../../work/sdram_model_plus.v(56).
#    Time: 0 ps  Iteration: 0  Instance: /tb_sdram_top/sdram_model_plus_inst File: ../../work/sdram_model_plus.v
# .main_pane.wave.interior.cs.body.pw.wf
# .main_pane.structure.interior.cs.body.struct
# .main_pane.objects.interior.cs.body.tree
# WARNING: Behavioral models for independent clock FIFO configurations do not model synchronization delays. The behavioral models are functionally correct, and will represent the behavior of the configured FIFO. See the FIFO Generator User Guide for more information.
# WARNING: Behavioral models for independent clock FIFO configurations do not model synchronization delays. The behavioral models are functionally correct, and will represent the behavior of the configured FIFO. See the FIFO Generator User Guide for more information.
run 204us
# at time    200115 ns PRE  : Bank = ALL
# at time    200135 ns AREF : Auto Refresh
# at time    200215 ns AREF : Auto Refresh
# at time    200295 ns LMR  : Load Mode Register
#                             CAS Latency      = 3
#                             Burst Length     = 4
#                             Burst Type       = Sequential
#                             Write Burst Mode = Programmed Burst Length
run 10us
# at time    215345 ns AREF : Auto Refresh
run 15us
# at time    225235 ns ACT  : Bank = 0 Row =    0
# at time    225285 ns WRITE: Bank = 0 Row =    0, Col =   0, Data =     1, Dqm = zz00
# at time    225295 ns WRITE: Bank = 0 Row =    0, Col =   1, Data =     2, Dqm = zz00
# at time    225305 ns WRITE: Bank = 0 Row =    0, Col =   2, Data =     3, Dqm = zz00
# at time    225315 ns WRITE: Bank = 0 Row =    0, Col =   3, Data =     4, Dqm = zz00
# at time    225325 ns WRITE: Bank = 0 Row =    0, Col =   4, Data =     5, Dqm = zz00
# at time    225335 ns WRITE: Bank = 0 Row =    0, Col =   5, Data =     6, Dqm = zz00
# at time    225345 ns WRITE: Bank = 0 Row =    0, Col =   6, Data =     7, Dqm = zz00
# at time    225355 ns WRITE: Bank = 0 Row =    0, Col =   7, Data =     8, Dqm = zz00
# at time    225365 ns WRITE: Bank = 0 Row =    0, Col =   8, Data =     9, Dqm = zz00
# at time    225375 ns WRITE: Bank = 0 Row =    0, Col =   9, Data =    10, Dqm = zz00
# at time    225385 ns WRITE: Bank = 0 Row =    0, Col =  10, Data =    11, Dqm = zz00
# at time    225395 ns WRITE: Bank = 0 Row =    0, Col =  11, Data =    12, Dqm = zz00
# at time    225405 ns WRITE: Bank = 0 Row =    0, Col =  12, Data =    13, Dqm = zz00
# at time    225415 ns WRITE: Bank = 0 Row =    0, Col =  13, Data =    14, Dqm = zz00
# at time    225425 ns WRITE: Bank = 0 Row =    0, Col =  14, Data =    15, Dqm = zz00
# at time    225435 ns WRITE: Bank = 0 Row =    0, Col =  15, Data =    16, Dqm = zz00
# at time    225445 ns WRITE: Bank = 0 Row =    0, Col =  16, Data =    17, Dqm = zz00
# at time    225455 ns WRITE: Bank = 0 Row =    0, Col =  17, Data =    18, Dqm = zz00
# at time    225465 ns WRITE: Bank = 0 Row =    0, Col =  18, Data =    19, Dqm = zz00
# at time    225475 ns WRITE: Bank = 0 Row =    0, Col =  19, Data =    20, Dqm = zz00
# at time    225485 ns WRITE: Bank = 0 Row =    0, Col =  20, Data =    21, Dqm = zz00
# at time    225495 ns WRITE: Bank = 0 Row =    0, Col =  21, Data =    22, Dqm = zz00
# at time    225505 ns WRITE: Bank = 0 Row =    0, Col =  22, Data =    23, Dqm = zz00
# at time    225515 ns WRITE: Bank = 0 Row =    0, Col =  23, Data =    24, Dqm = zz00
# at time    225525 ns WRITE: Bank = 0 Row =    0, Col =  24, Data =    25, Dqm = zz00
# at time    225535 ns WRITE: Bank = 0 Row =    0, Col =  25, Data =    26, Dqm = zz00
# at time    225545 ns WRITE: Bank = 0 Row =    0, Col =  26, Data =    27, Dqm = zz00
# at time    225555 ns WRITE: Bank = 0 Row =    0, Col =  27, Data =    28, Dqm = zz00
# at time    225565 ns WRITE: Bank = 0 Row =    0, Col =  28, Data =    29, Dqm = zz00
# at time    225575 ns WRITE: Bank = 0 Row =    0, Col =  29, Data =    30, Dqm = zz00
# at time    225585 ns WRITE: Bank = 0 Row =    0, Col =  30, Data =    31, Dqm = zz00
# at time    225595 ns WRITE: Bank = 0 Row =    0, Col =  31, Data =    32, Dqm = zz00
# at time    225605 ns WRITE: Bank = 0 Row =    0, Col =  32, Data =    33, Dqm = zz00
# at time    225615 ns WRITE: Bank = 0 Row =    0, Col =  33, Data =    34, Dqm = zz00
# at time    225625 ns WRITE: Bank = 0 Row =    0, Col =  34, Data =    35, Dqm = zz00
# at time    225635 ns WRITE: Bank = 0 Row =    0, Col =  35, Data =    36, Dqm = zz00
# at time    225645 ns WRITE: Bank = 0 Row =    0, Col =  36, Data =    37, Dqm = zz00
# at time    225655 ns WRITE: Bank = 0 Row =    0, Col =  37, Data =    38, Dqm = zz00
# at time    225665 ns WRITE: Bank = 0 Row =    0, Col =  38, Data =    39, Dqm = zz00
# at time    225675 ns WRITE: Bank = 0 Row =    0, Col =  39, Data =    40, Dqm = zz00
# at time    225685 ns WRITE: Bank = 0 Row =    0, Col =  40, Data =    41, Dqm = zz00
# at time    225695 ns WRITE: Bank = 0 Row =    0, Col =  41, Data =    42, Dqm = zz00
# at time    225705 ns WRITE: Bank = 0 Row =    0, Col =  42, Data =    43, Dqm = zz00
# at time    225715 ns WRITE: Bank = 0 Row =    0, Col =  43, Data =    44, Dqm = zz00
# at time    225725 ns WRITE: Bank = 0 Row =    0, Col =  44, Data =    45, Dqm = zz00
# at time    225735 ns WRITE: Bank = 0 Row =    0, Col =  45, Data =    46, Dqm = zz00
# at time    225745 ns WRITE: Bank = 0 Row =    0, Col =  46, Data =    47, Dqm = zz00
# at time    225755 ns WRITE: Bank = 0 Row =    0, Col =  47, Data =    48, Dqm = zz00
# at time    225765 ns WRITE: Bank = 0 Row =    0, Col =  48, Data =    49, Dqm = zz00
# at time    225775 ns WRITE: Bank = 0 Row =    0, Col =  49, Data =    50, Dqm = zz00
# at time    225785 ns WRITE: Bank = 0 Row =    0, Col =  50, Data =    51, Dqm = zz00
# at time    225795 ns WRITE: Bank = 0 Row =    0, Col =  51, Data =    52, Dqm = zz00
# at time    225805 ns WRITE: Bank = 0 Row =    0, Col =  52, Data =    53, Dqm = zz00
# at time    225815 ns WRITE: Bank = 0 Row =    0, Col =  53, Data =    54, Dqm = zz00
# at time    225825 ns WRITE: Bank = 0 Row =    0, Col =  54, Data =    55, Dqm = zz00
# at time    225835 ns WRITE: Bank = 0 Row =    0, Col =  55, Data =    56, Dqm = zz00
# at time    225845 ns WRITE: Bank = 0 Row =    0, Col =  56, Data =    57, Dqm = zz00
# at time    225855 ns WRITE: Bank = 0 Row =    0, Col =  57, Data =    58, Dqm = zz00
# at time    225865 ns WRITE: Bank = 0 Row =    0, Col =  58, Data =    59, Dqm = zz00
# at time    225875 ns WRITE: Bank = 0 Row =    0, Col =  59, Data =    60, Dqm = zz00
# at time    225885 ns WRITE: Bank = 0 Row =    0, Col =  60, Data =    61, Dqm = zz00
# at time    225895 ns WRITE: Bank = 0 Row =    0, Col =  61, Data =    62, Dqm = zz00
# at time    225905 ns WRITE: Bank = 0 Row =    0, Col =  62, Data =    63, Dqm = zz00
# at time    225915 ns WRITE: Bank = 0 Row =    0, Col =  63, Data =    64, Dqm = zz00
# at time    225925 ns WRITE: Bank = 0 Row =    0, Col =  64, Data =    65, Dqm = zz00
# at time    225935 ns WRITE: Bank = 0 Row =    0, Col =  65, Data =    66, Dqm = zz00
# at time    225945 ns WRITE: Bank = 0 Row =    0, Col =  66, Data =    67, Dqm = zz00
# at time    225955 ns WRITE: Bank = 0 Row =    0, Col =  67, Data =    68, Dqm = zz00
# at time    225965 ns WRITE: Bank = 0 Row =    0, Col =  68, Data =    69, Dqm = zz00
# at time    225975 ns WRITE: Bank = 0 Row =    0, Col =  69, Data =    70, Dqm = zz00
# at time    225985 ns WRITE: Bank = 0 Row =    0, Col =  70, Data =    71, Dqm = zz00
# at time    225995 ns WRITE: Bank = 0 Row =    0, Col =  71, Data =    72, Dqm = zz00
# at time    226005 ns WRITE: Bank = 0 Row =    0, Col =  72, Data =    73, Dqm = zz00
# at time    226015 ns WRITE: Bank = 0 Row =    0, Col =  73, Data =    74, Dqm = zz00
# at time    226025 ns WRITE: Bank = 0 Row =    0, Col =  74, Data =    75, Dqm = zz00
# at time    226035 ns WRITE: Bank = 0 Row =    0, Col =  75, Data =    76, Dqm = zz00
# at time    226045 ns WRITE: Bank = 0 Row =    0, Col =  76, Data =    77, Dqm = zz00
# at time    226055 ns WRITE: Bank = 0 Row =    0, Col =  77, Data =    78, Dqm = zz00
# at time    226065 ns WRITE: Bank = 0 Row =    0, Col =  78, Data =    79, Dqm = zz00
# at time    226075 ns WRITE: Bank = 0 Row =    0, Col =  79, Data =    80, Dqm = zz00
# at time    226085 ns WRITE: Bank = 0 Row =    0, Col =  80, Data =    81, Dqm = zz00
# at time    226095 ns WRITE: Bank = 0 Row =    0, Col =  81, Data =    82, Dqm = zz00
# at time    226105 ns WRITE: Bank = 0 Row =    0, Col =  82, Data =    83, Dqm = zz00
# at time    226115 ns WRITE: Bank = 0 Row =    0, Col =  83, Data =    84, Dqm = zz00
# at time    226125 ns WRITE: Bank = 0 Row =    0, Col =  84, Data =    85, Dqm = zz00
# at time    226135 ns WRITE: Bank = 0 Row =    0, Col =  85, Data =    86, Dqm = zz00
# at time    226145 ns WRITE: Bank = 0 Row =    0, Col =  86, Data =    87, Dqm = zz00
# at time    226155 ns WRITE: Bank = 0 Row =    0, Col =  87, Data =    88, Dqm = zz00
# at time    226165 ns WRITE: Bank = 0 Row =    0, Col =  88, Data =    89, Dqm = zz00
# at time    226175 ns WRITE: Bank = 0 Row =    0, Col =  89, Data =    90, Dqm = zz00
# at time    226185 ns WRITE: Bank = 0 Row =    0, Col =  90, Data =    91, Dqm = zz00
# at time    226195 ns WRITE: Bank = 0 Row =    0, Col =  91, Data =    92, Dqm = zz00
# at time    226205 ns WRITE: Bank = 0 Row =    0, Col =  92, Data =    93, Dqm = zz00
# at time    226215 ns WRITE: Bank = 0 Row =    0, Col =  93, Data =    94, Dqm = zz00
# at time    226225 ns WRITE: Bank = 0 Row =    0, Col =  94, Data =    95, Dqm = zz00
# at time    226235 ns WRITE: Bank = 0 Row =    0, Col =  95, Data =    96, Dqm = zz00
# at time    226245 ns WRITE: Bank = 0 Row =    0, Col =  96, Data =    97, Dqm = zz00
# at time    226255 ns WRITE: Bank = 0 Row =    0, Col =  97, Data =    98, Dqm = zz00
# at time    226265 ns WRITE: Bank = 0 Row =    0, Col =  98, Data =    99, Dqm = zz00
# at time    226275 ns WRITE: Bank = 0 Row =    0, Col =  99, Data =   100, Dqm = zz00
# at time    226285 ns WRITE: Bank = 0 Row =    0, Col = 100, Data =   101, Dqm = zz00
# at time    226295 ns WRITE: Bank = 0 Row =    0, Col = 101, Data =   102, Dqm = zz00
# at time    226305 ns WRITE: Bank = 0 Row =    0, Col = 102, Data =   103, Dqm = zz00
# at time    226315 ns WRITE: Bank = 0 Row =    0, Col = 103, Data =   104, Dqm = zz00
# at time    226325 ns WRITE: Bank = 0 Row =    0, Col = 104, Data =   105, Dqm = zz00
# at time    226335 ns WRITE: Bank = 0 Row =    0, Col = 105, Data =   106, Dqm = zz00
# at time    226345 ns WRITE: Bank = 0 Row =    0, Col = 106, Data =   107, Dqm = zz00
# at time    226355 ns WRITE: Bank = 0 Row =    0, Col = 107, Data =   108, Dqm = zz00
# at time    226365 ns WRITE: Bank = 0 Row =    0, Col = 108, Data =   109, Dqm = zz00
# at time    226375 ns WRITE: Bank = 0 Row =    0, Col = 109, Data =   110, Dqm = zz00
# at time    226385 ns WRITE: Bank = 0 Row =    0, Col = 110, Data =   111, Dqm = zz00
# at time    226395 ns WRITE: Bank = 0 Row =    0, Col = 111, Data =   112, Dqm = zz00
# at time    226405 ns WRITE: Bank = 0 Row =    0, Col = 112, Data =   113, Dqm = zz00
# at time    226415 ns WRITE: Bank = 0 Row =    0, Col = 113, Data =   114, Dqm = zz00
# at time    226425 ns WRITE: Bank = 0 Row =    0, Col = 114, Data =   115, Dqm = zz00
# at time    226435 ns WRITE: Bank = 0 Row =    0, Col = 115, Data =   116, Dqm = zz00
# at time    226445 ns WRITE: Bank = 0 Row =    0, Col = 116, Data =   117, Dqm = zz00
# at time    226455 ns WRITE: Bank = 0 Row =    0, Col = 117, Data =   118, Dqm = zz00
# at time    226465 ns WRITE: Bank = 0 Row =    0, Col = 118, Data =   119, Dqm = zz00
# at time    226475 ns WRITE: Bank = 0 Row =    0, Col = 119, Data =   120, Dqm = zz00
# at time    226485 ns WRITE: Bank = 0 Row =    0, Col = 120, Data =   121, Dqm = zz00
# at time    226495 ns WRITE: Bank = 0 Row =    0, Col = 121, Data =   122, Dqm = zz00
# at time    226505 ns WRITE: Bank = 0 Row =    0, Col = 122, Data =   123, Dqm = zz00
# at time    226515 ns WRITE: Bank = 0 Row =    0, Col = 123, Data =   124, Dqm = zz00
# at time    226525 ns WRITE: Bank = 0 Row =    0, Col = 124, Data =   125, Dqm = zz00
# at time    226535 ns WRITE: Bank = 0 Row =    0, Col = 125, Data =   126, Dqm = zz00
# at time    226545 ns WRITE: Bank = 0 Row =    0, Col = 126, Data =   127, Dqm = zz00
# at time    226555 ns WRITE: Bank = 0 Row =    0, Col = 127, Data =   128, Dqm = zz00
# at time    226565 ns WRITE: Bank = 0 Row =    0, Col = 128, Data =   129, Dqm = zz00
# at time    226575 ns WRITE: Bank = 0 Row =    0, Col = 129, Data =   130, Dqm = zz00
# at time    226585 ns WRITE: Bank = 0 Row =    0, Col = 130, Data =   131, Dqm = zz00
# at time    226595 ns WRITE: Bank = 0 Row =    0, Col = 131, Data =   132, Dqm = zz00
# at time    226605 ns WRITE: Bank = 0 Row =    0, Col = 132, Data =   133, Dqm = zz00
# at time    226615 ns WRITE: Bank = 0 Row =    0, Col = 133, Data =   134, Dqm = zz00
# at time    226625 ns WRITE: Bank = 0 Row =    0, Col = 134, Data =   135, Dqm = zz00
# at time    226635 ns WRITE: Bank = 0 Row =    0, Col = 135, Data =   136, Dqm = zz00
# at time    226645 ns WRITE: Bank = 0 Row =    0, Col = 136, Data =   137, Dqm = zz00
# at time    226655 ns WRITE: Bank = 0 Row =    0, Col = 137, Data =   138, Dqm = zz00
# at time    226665 ns WRITE: Bank = 0 Row =    0, Col = 138, Data =   139, Dqm = zz00
# at time    226675 ns WRITE: Bank = 0 Row =    0, Col = 139, Data =   140, Dqm = zz00
# at time    226685 ns WRITE: Bank = 0 Row =    0, Col = 140, Data =   141, Dqm = zz00
# at time    226695 ns WRITE: Bank = 0 Row =    0, Col = 141, Data =   142, Dqm = zz00
# at time    226705 ns WRITE: Bank = 0 Row =    0, Col = 142, Data =   143, Dqm = zz00
# at time    226715 ns WRITE: Bank = 0 Row =    0, Col = 143, Data =   144, Dqm = zz00
# at time    226725 ns WRITE: Bank = 0 Row =    0, Col = 144, Data =   145, Dqm = zz00
# at time    226735 ns WRITE: Bank = 0 Row =    0, Col = 145, Data =   146, Dqm = zz00
# at time    226745 ns WRITE: Bank = 0 Row =    0, Col = 146, Data =   147, Dqm = zz00
# at time    226755 ns WRITE: Bank = 0 Row =    0, Col = 147, Data =   148, Dqm = zz00
# at time    226765 ns WRITE: Bank = 0 Row =    0, Col = 148, Data =   149, Dqm = zz00
# at time    226775 ns WRITE: Bank = 0 Row =    0, Col = 149, Data =   150, Dqm = zz00
# at time    226785 ns WRITE: Bank = 0 Row =    0, Col = 150, Data =   151, Dqm = zz00
# at time    226795 ns WRITE: Bank = 0 Row =    0, Col = 151, Data =   152, Dqm = zz00
# at time    226805 ns WRITE: Bank = 0 Row =    0, Col = 152, Data =   153, Dqm = zz00
# at time    226815 ns WRITE: Bank = 0 Row =    0, Col = 153, Data =   154, Dqm = zz00
# at time    226825 ns WRITE: Bank = 0 Row =    0, Col = 154, Data =   155, Dqm = zz00
# at time    226835 ns WRITE: Bank = 0 Row =    0, Col = 155, Data =   156, Dqm = zz00
# at time    226845 ns WRITE: Bank = 0 Row =    0, Col = 156, Data =   157, Dqm = zz00
# at time    226855 ns WRITE: Bank = 0 Row =    0, Col = 157, Data =   158, Dqm = zz00
# at time    226865 ns WRITE: Bank = 0 Row =    0, Col = 158, Data =   159, Dqm = zz00
# at time    226875 ns WRITE: Bank = 0 Row =    0, Col = 159, Data =   160, Dqm = zz00
# at time    226885 ns WRITE: Bank = 0 Row =    0, Col = 160, Data =   161, Dqm = zz00
# at time    226895 ns WRITE: Bank = 0 Row =    0, Col = 161, Data =   162, Dqm = zz00
# at time    226905 ns WRITE: Bank = 0 Row =    0, Col = 162, Data =   163, Dqm = zz00
# at time    226915 ns WRITE: Bank = 0 Row =    0, Col = 163, Data =   164, Dqm = zz00
# at time    226925 ns WRITE: Bank = 0 Row =    0, Col = 164, Data =   165, Dqm = zz00
# at time    226935 ns WRITE: Bank = 0 Row =    0, Col = 165, Data =   166, Dqm = zz00
# at time    226945 ns WRITE: Bank = 0 Row =    0, Col = 166, Data =   167, Dqm = zz00
# at time    226955 ns WRITE: Bank = 0 Row =    0, Col = 167, Data =   168, Dqm = zz00
# at time    226965 ns WRITE: Bank = 0 Row =    0, Col = 168, Data =   169, Dqm = zz00
# at time    226975 ns WRITE: Bank = 0 Row =    0, Col = 169, Data =   170, Dqm = zz00
# at time    226985 ns WRITE: Bank = 0 Row =    0, Col = 170, Data =   171, Dqm = zz00
# at time    226995 ns WRITE: Bank = 0 Row =    0, Col = 171, Data =   172, Dqm = zz00
# at time    227005 ns WRITE: Bank = 0 Row =    0, Col = 172, Data =   173, Dqm = zz00
# at time    227015 ns WRITE: Bank = 0 Row =    0, Col = 173, Data =   174, Dqm = zz00
# at time    227025 ns WRITE: Bank = 0 Row =    0, Col = 174, Data =   175, Dqm = zz00
# at time    227035 ns WRITE: Bank = 0 Row =    0, Col = 175, Data =   176, Dqm = zz00
# at time    227045 ns WRITE: Bank = 0 Row =    0, Col = 176, Data =   177, Dqm = zz00
# at time    227055 ns WRITE: Bank = 0 Row =    0, Col = 177, Data =   178, Dqm = zz00
# at time    227065 ns WRITE: Bank = 0 Row =    0, Col = 178, Data =   179, Dqm = zz00
# at time    227075 ns WRITE: Bank = 0 Row =    0, Col = 179, Data =   180, Dqm = zz00
# at time    227085 ns WRITE: Bank = 0 Row =    0, Col = 180, Data =   181, Dqm = zz00
# at time    227095 ns WRITE: Bank = 0 Row =    0, Col = 181, Data =   182, Dqm = zz00
# at time    227105 ns WRITE: Bank = 0 Row =    0, Col = 182, Data =   183, Dqm = zz00
# at time    227115 ns WRITE: Bank = 0 Row =    0, Col = 183, Data =   184, Dqm = zz00
# at time    227125 ns WRITE: Bank = 0 Row =    0, Col = 184, Data =   185, Dqm = zz00
# at time    227135 ns WRITE: Bank = 0 Row =    0, Col = 185, Data =   186, Dqm = zz00
# at time    227145 ns WRITE: Bank = 0 Row =    0, Col = 186, Data =   187, Dqm = zz00
# at time    227155 ns WRITE: Bank = 0 Row =    0, Col = 187, Data =   188, Dqm = zz00
# at time    227165 ns WRITE: Bank = 0 Row =    0, Col = 188, Data =   189, Dqm = zz00
# at time    227175 ns WRITE: Bank = 0 Row =    0, Col = 189, Data =   190, Dqm = zz00
# at time    227185 ns WRITE: Bank = 0 Row =    0, Col = 190, Data =   191, Dqm = zz00
# at time    227195 ns WRITE: Bank = 0 Row =    0, Col = 191, Data =   192, Dqm = zz00
# at time    227205 ns WRITE: Bank = 0 Row =    0, Col = 192, Data =   193, Dqm = zz00
# at time    227215 ns WRITE: Bank = 0 Row =    0, Col = 193, Data =   194, Dqm = zz00
# at time    227225 ns WRITE: Bank = 0 Row =    0, Col = 194, Data =   195, Dqm = zz00
# at time    227235 ns WRITE: Bank = 0 Row =    0, Col = 195, Data =   196, Dqm = zz00
# at time    227245 ns WRITE: Bank = 0 Row =    0, Col = 196, Data =   197, Dqm = zz00
# at time    227255 ns WRITE: Bank = 0 Row =    0, Col = 197, Data =   198, Dqm = zz00
# at time    227265 ns WRITE: Bank = 0 Row =    0, Col = 198, Data =   199, Dqm = zz00
# at time    227275 ns WRITE: Bank = 0 Row =    0, Col = 199, Data =   200, Dqm = zz00
# at time    227285 ns WRITE: Bank = 0 Row =    0, Col = 200, Data =   201, Dqm = zz00
# at time    227295 ns WRITE: Bank = 0 Row =    0, Col = 201, Data =   202, Dqm = zz00
# at time    227305 ns WRITE: Bank = 0 Row =    0, Col = 202, Data =   203, Dqm = zz00
# at time    227315 ns WRITE: Bank = 0 Row =    0, Col = 203, Data =   204, Dqm = zz00
# at time    227325 ns WRITE: Bank = 0 Row =    0, Col = 204, Data =   205, Dqm = zz00
# at time    227335 ns WRITE: Bank = 0 Row =    0, Col = 205, Data =   206, Dqm = zz00
# at time    227345 ns WRITE: Bank = 0 Row =    0, Col = 206, Data =   207, Dqm = zz00
# at time    227355 ns WRITE: Bank = 0 Row =    0, Col = 207, Data =   208, Dqm = zz00
# at time    227365 ns WRITE: Bank = 0 Row =    0, Col = 208, Data =   209, Dqm = zz00
# at time    227375 ns WRITE: Bank = 0 Row =    0, Col = 209, Data =   210, Dqm = zz00
# at time    227385 ns WRITE: Bank = 0 Row =    0, Col = 210, Data =   211, Dqm = zz00
# at time    227395 ns WRITE: Bank = 0 Row =    0, Col = 211, Data =   212, Dqm = zz00
# at time    227405 ns WRITE: Bank = 0 Row =    0, Col = 212, Data =   213, Dqm = zz00
# at time    227415 ns WRITE: Bank = 0 Row =    0, Col = 213, Data =   214, Dqm = zz00
# at time    227425 ns WRITE: Bank = 0 Row =    0, Col = 214, Data =   215, Dqm = zz00
# at time    227435 ns WRITE: Bank = 0 Row =    0, Col = 215, Data =   216, Dqm = zz00
# at time    227445 ns WRITE: Bank = 0 Row =    0, Col = 216, Data =   217, Dqm = zz00
# at time    227455 ns WRITE: Bank = 0 Row =    0, Col = 217, Data =   218, Dqm = zz00
# at time    227465 ns WRITE: Bank = 0 Row =    0, Col = 218, Data =   219, Dqm = zz00
# at time    227475 ns WRITE: Bank = 0 Row =    0, Col = 219, Data =   220, Dqm = zz00
# at time    227485 ns WRITE: Bank = 0 Row =    0, Col = 220, Data =   221, Dqm = zz00
# at time    227495 ns WRITE: Bank = 0 Row =    0, Col = 221, Data =   222, Dqm = zz00
# at time    227505 ns WRITE: Bank = 0 Row =    0, Col = 222, Data =   223, Dqm = zz00
# at time    227515 ns WRITE: Bank = 0 Row =    0, Col = 223, Data =   224, Dqm = zz00
# at time    227525 ns WRITE: Bank = 0 Row =    0, Col = 224, Data =   225, Dqm = zz00
# at time    227535 ns WRITE: Bank = 0 Row =    0, Col = 225, Data =   226, Dqm = zz00
# at time    227545 ns WRITE: Bank = 0 Row =    0, Col = 226, Data =   227, Dqm = zz00
# at time    227555 ns WRITE: Bank = 0 Row =    0, Col = 227, Data =   228, Dqm = zz00
# at time    227565 ns WRITE: Bank = 0 Row =    0, Col = 228, Data =   229, Dqm = zz00
# at time    227575 ns WRITE: Bank = 0 Row =    0, Col = 229, Data =   230, Dqm = zz00
# at time    227585 ns WRITE: Bank = 0 Row =    0, Col = 230, Data =   231, Dqm = zz00
# at time    227595 ns WRITE: Bank = 0 Row =    0, Col = 231, Data =   232, Dqm = zz00
# at time    227605 ns WRITE: Bank = 0 Row =    0, Col = 232, Data =   233, Dqm = zz00
# at time    227615 ns WRITE: Bank = 0 Row =    0, Col = 233, Data =   234, Dqm = zz00
# at time    227625 ns WRITE: Bank = 0 Row =    0, Col = 234, Data =   235, Dqm = zz00
# at time    227635 ns WRITE: Bank = 0 Row =    0, Col = 235, Data =   236, Dqm = zz00
# at time    227645 ns WRITE: Bank = 0 Row =    0, Col = 236, Data =   237, Dqm = zz00
# at time    227655 ns WRITE: Bank = 0 Row =    0, Col = 237, Data =   238, Dqm = zz00
# at time    227665 ns WRITE: Bank = 0 Row =    0, Col = 238, Data =   239, Dqm = zz00
